\relax 
\@writefile{toc}{\contentsline {section}{\numberline {1}ingredients}{1}}
\@writefile{toc}{\contentsline {section}{\numberline {2}method}{1}}
\@writefile{toc}{\contentsline {subsection}{\numberline {2.1}making levain}{1}}
\@writefile{toc}{\contentsline {subsection}{\numberline {2.2}autolyze prep}{1}}
\@writefile{toc}{\contentsline {subsection}{\numberline {2.3}dough}{1}}
\@writefile{toc}{\contentsline {subsubsection}{\numberline {2.3.1}fold}{2}}
\@writefile{toc}{\contentsline {subsection}{\numberline {2.4}shaping}{2}}
\@writefile{toc}{\contentsline {subsection}{\numberline {2.5}baking and scoring}{2}}
